Foundation Model Wrappers for Tabular Data in R • tabfm
…
two_cls_train <- parabolic[1:400,  ]
two_cls_val   <- parabolic[401:500,]
grid <- expand.grid(X1 = seq(-5.1, 5.0, length.out = 25), 
                    X2 = seq(-5.5, 4.0, length.out = 25))

set.seed(3824)
cls_mod <- tab_pfn(class ~ ., data = two_cls_train)

grid_pred <- predict(cls_mod, grid)
grid_pred
#> # A tibble: 625 × 3
#>    .pred_Class1 .pred_Class2 .pred_class
#>           <dbl>        <dbl> <fct>      
#>  1        0.997      0.00273 Class1     
#>  2        0.998      0.00217 Class1     
#>  3        0.998      0.00182 Class1     
#>  4        0.998      0.00155 Class1     
#>  5        0.998      0.00167 Class1     
#>  6        0.998      0.00222 Class1     
#>  7        0.996      0.00438 Class1     
#>  8        0.989      0.0109  Class1     
#>  9        0.948      0.0522  Class1     
#> 10        0.745      0.255   Class1     
#> # ℹ 615 more rows
…
